14 ica-resh. – COMP/STAT112 Notebook
…
  Subject  day_0  day_1  day_2  day_3  day_4  day_5  day_6  day_7  day_8  day_9
1     308 249.56 258.70 250.80 321.44 356.85 414.69 382.20 290.15 430.59 466.35
2     309 222.73 205.27 202.98 204.71 207.72 215.96 213.63 217.73 224.30 237.31
3     310 199.05 194.33 234.32 232.84 229.31 220.46 235.42 255.75 261.01 247.52
4     330 321.54 300.40 283.86 285.13 285.80 297.59 280.24 318.26 305.35 354.05
5     331 287.61 285.00 301.82 320.12 316.28 293.32 290.08 334.82 293.75 371.58
6     332 234.86 242.81 272.96 309.77 317.46 310.00 454.16 346.83 330.30 253.86

#subject numbers are people, the rest of columns seem to be each of their reaction times by day

# For cols, try 2 appproaches: using - and starts_with
sleep_wide |>
  pivot_longer(cols = -Subject, names_to = "day", values_to = "reaction_time")

# A tibble: 180 × 3
   Subject day   reaction_time
     <int> <chr>         <dbl>
 1     308 day_0          250.
 2     308 day_1          259.
 3     308 day_2          251.
 4     308 day_3          321.
 5     308 day_4          357.
 6     308 day_5          415.
 7     308 day_6          382.
 8     308 day_7          290.
 9     308 day_8          431.
10     308 day_9          466.
# ℹ 170 more rows

sleep_wide |>
  pivot_longer(cols = starts_with("day"), names_to = "day", values_to = "reaction_time")

# A tibble: 180 × 3
   Subject day   reaction_time
     <int> <chr>         <dbl>
 1     308 day_0          250.
 2     308 day_1          259.
 3     308 day_2          251.
 4     308 day_3          321.
 5     308 day_4          357.
 6     308 day_5          415.
 7     308 day_6          382.
 8     308 day_7          290.
 9     308 day_8          431.
10     308 day_9          466.
# ℹ 170 more rows
…
